{
    "static_path": "./static/",
    "title": "title",
    "length": 20,
    "channel": "redis_channel",
    "token": "wechat token here",
    "api_key": "client api_key here",
    "keepalive_interval": 20,
    "maxlength": 100,
    "wait": 3000
}
